{
  "name": "policyHolders",
  "properties": {
    "name": {
        "type": "string"
    },
    "address": {
        "type": "string"
    },
    "telephone": {
        "type": "string"
    },
    "taxCode": {
        "type": "string"
    },
    "activities": {
        "type": "string"
    },
    "contactPerson": {
        "type": "string"
    }
  },

  "options": {},
  "acls": [
    {
      "principalType": "ROLE",
      "principalId": "$unauthenticated",
      "permission": "DENY"
    }
  ],
  "relations": {}
}
