{
  "name": "policies",
  "properties": {
  },

  "options": {},
  "acls": [
    {
      "principalType": "ROLE",
      "principalId": "$unauthenticated",
      "permission": "DENY"
    }
  ],
  "relations": {}
}
